[gd_scene load_steps=2 format=2]

[ext_resource path="res://system/gui.gd" type="Script" id=1]

[node name="gui" type="Control"]
anchor_right = 1.0
anchor_bottom = 1.0
margin_left = -477.145
margin_top = -266.158
margin_right = -477.145
margin_bottom = -266.158
script = ExtResource( 1 )
__meta__ = {
"_edit_use_anchors_": false
}

[node name="over" type="CanvasLayer" parent="."]

[node name="platformer" type="Button" parent="over"]
margin_left = 9.53528
margin_top = 4.21994
margin_right = 88.5353
margin_bottom = 24.2199
text = "Platformer"
__meta__ = {
"_edit_use_anchors_": false
}

[node name="scroller" type="Button" parent="over"]
margin_left = 15.5353
margin_top = 59.2199
margin_right = 84.5353
margin_bottom = 80.2199
text = "scroller"
__meta__ = {
"_edit_use_anchors_": false
}

[node name="isometric" type="Button" parent="over"]
margin_left = 12.8594
margin_top = 30.8127
margin_right = 86.8594
margin_bottom = 50.8127
text = "Isometric"
__meta__ = {
"_edit_use_anchors_": false
}

[node name="adventure" type="Button" parent="over"]
margin_left = 12.8594
margin_top = 91.0863
margin_right = 86.8594
margin_bottom = 111.086
text = "Adventure"
__meta__ = {
"_edit_use_anchors_": false
}
