[gd_scene load_steps=3 format=2]

[ext_resource path="res://actor/player_adv/cursor/cursor_final.png" type="Texture" id=1]
[ext_resource path="res://actor/player_adv/cursor/cursor.gd" type="Script" id=2]

[node name="cursor" type="Sprite"]
z_index = 4096
z_as_relative = false
texture = ExtResource( 1 )
centered = false
script = ExtResource( 2 )
